EESchema Schematic File Version 2
LIBS:power
LIBS:device
LIBS:switches
LIBS:relays
LIBS:motors
LIBS:transistors
LIBS:conn
LIBS:linear
LIBS:regul
LIBS:74xx
LIBS:cmos4000
LIBS:adc-dac
LIBS:memory
LIBS:xilinx
LIBS:microcontrollers
LIBS:dsp
LIBS:microchip
LIBS:analog_switches
LIBS:motorola
LIBS:texas
LIBS:intel
LIBS:audio
LIBS:interface
LIBS:digital-audio
LIBS:philips
LIBS:display
LIBS:cypress
LIBS:siliconi
LIBS:opto
LIBS:atmel
LIBS:contrib
LIBS:valves
LIBS:RT9728Bx
LIBS:LD3985M3xR
LIBS:easy-usb-supply-cache
EELAYER 25 0
EELAYER END
$Descr A4 11693 8268
encoding utf-8
Sheet 1 1
Title "Easy USB Supply"
Date ""
Rev "A"
Comp "Mad Resistor"
Comment1 ""
Comment2 ""
Comment3 ""
Comment4 ""
$EndDescr
$Comp
L C C7
U 1 1 59EE6017
P 5200 4500
F 0 "C7" H 5200 4600 40  0000 L CNN
F 1 "10nF" H 5206 4415 40  0000 L CNN
F 2 "Capacitors_SMD:C_0603" H 5238 4350 30  0001 C CNN
F 3 "~" H 5200 4500 60  0000 C CNN
	1    5200 4500
	1    0    0    -1  
$EndComp
$Comp
L GND #PWR01
U 1 1 59EE601E
P 5200 4650
F 0 "#PWR01" H 5200 4650 30  0001 C CNN
F 1 "GND" H 5200 4580 30  0001 C CNN
F 2 "" H 5200 4650 60  0001 C CNN
F 3 "" H 5200 4650 60  0000 C CNN
	1    5200 4650
	1    0    0    -1  
$EndComp
$Comp
L GND #PWR02
U 1 1 59EE6024
P 4700 4650
F 0 "#PWR02" H 4700 4650 30  0001 C CNN
F 1 "GND" H 4700 4580 30  0001 C CNN
F 2 "" H 4700 4650 60  0001 C CNN
F 3 "" H 4700 4650 60  0000 C CNN
	1    4700 4650
	1    0    0    -1  
$EndComp
$Comp
L C C4
U 1 1 59EE602A
P 4050 4500
F 0 "C4" H 4050 4600 40  0000 L CNN
F 1 "100nF" H 4056 4415 40  0000 L CNN
F 2 "Capacitors_SMD:C_0603" H 4088 4350 30  0001 C CNN
F 3 "~" H 4050 4500 60  0000 C CNN
	1    4050 4500
	1    0    0    -1  
$EndComp
$Comp
L GND #PWR03
U 1 1 59EE6031
P 4050 4650
F 0 "#PWR03" H 4050 4650 30  0001 C CNN
F 1 "GND" H 4050 4580 30  0001 C CNN
F 2 "" H 4050 4650 60  0001 C CNN
F 3 "" H 4050 4650 60  0000 C CNN
	1    4050 4650
	1    0    0    -1  
$EndComp
$Comp
L C C8
U 1 1 59EE6037
P 5550 4500
F 0 "C8" H 5550 4600 40  0000 L CNN
F 1 "100nF" H 5556 4415 40  0000 L CNN
F 2 "Capacitors_SMD:C_0603" H 5588 4350 30  0001 C CNN
F 3 "~" H 5550 4500 60  0000 C CNN
	1    5550 4500
	1    0    0    -1  
$EndComp
$Comp
L GND #PWR04
U 1 1 59EE603E
P 5550 4650
F 0 "#PWR04" H 5550 4650 30  0001 C CNN
F 1 "GND" H 5550 4580 30  0001 C CNN
F 2 "" H 5550 4650 60  0001 C CNN
F 3 "" H 5550 4650 60  0000 C CNN
	1    5550 4650
	1    0    0    -1  
$EndComp
$Comp
L C C2
U 1 1 59EE604E
P 3800 4500
F 0 "C2" H 3800 4600 40  0000 L CNN
F 1 "1uF" H 3806 4415 40  0000 L CNN
F 2 "Capacitors_SMD:C_0603" H 3838 4350 30  0001 C CNN
F 3 "~" H 3800 4500 60  0000 C CNN
	1    3800 4500
	1    0    0    -1  
$EndComp
$Comp
L GND #PWR05
U 1 1 59EE6055
P 3800 4650
F 0 "#PWR05" H 3800 4650 30  0001 C CNN
F 1 "GND" H 3800 4580 30  0001 C CNN
F 2 "" H 3800 4650 60  0001 C CNN
F 3 "" H 3800 4650 60  0000 C CNN
	1    3800 4650
	1    0    0    -1  
$EndComp
$Comp
L C C9
U 1 1 59EE605B
P 5800 4500
F 0 "C9" H 5800 4600 40  0000 L CNN
F 1 "1uF" H 5806 4415 40  0000 L CNN
F 2 "Capacitors_SMD:C_0603" H 5838 4350 30  0001 C CNN
F 3 "~" H 5800 4500 60  0000 C CNN
	1    5800 4500
	1    0    0    -1  
$EndComp
$Comp
L GND #PWR06
U 1 1 59EE6062
P 5800 4650
F 0 "#PWR06" H 5800 4650 30  0001 C CNN
F 1 "GND" H 5800 4580 30  0001 C CNN
F 2 "" H 5800 4650 60  0001 C CNN
F 3 "" H 5800 4650 60  0000 C CNN
	1    5800 4650
	1    0    0    -1  
$EndComp
$Comp
L LD3985M3xR U1
U 1 1 59EE608F
P 4700 4250
F 0 "U1" H 4950 4000 60  0000 C CNN
F 1 "LD3985M3xR" H 4700 4450 60  0000 C CNN
F 2 "TO_SOT_Packages_SMD:SOT-23-5" H 4600 4000 60  0001 C CNN
F 3 "~" H 4700 4250 60  0000 C CNN
	1    4700 4250
	1    0    0    -1  
$EndComp
$Comp
L RT9728Bx U2
U 1 1 59EE60B1
P 5800 3100
F 0 "U2" H 5800 3000 50  0000 C CNN
F 1 "RT9728Bx" H 5800 3200 50  0000 C CNN
F 2 "TO_SOT_Packages_SMD:SOT-23-6" H 5800 3100 50  0001 C CNN
F 3 "DOCUMENTATION" H 5800 3100 50  0001 C CNN
	1    5800 3100
	1    0    0    -1  
$EndComp
$Comp
L GND #PWR07
U 1 1 59EE60CE
P 6650 3550
F 0 "#PWR07" H 6650 3550 30  0001 C CNN
F 1 "GND" H 6650 3480 30  0001 C CNN
F 2 "" H 6650 3550 60  0001 C CNN
F 3 "" H 6650 3550 60  0000 C CNN
	1    6650 3550
	1    0    0    -1  
$EndComp
$Comp
L R R3
U 1 1 59EE60D5
P 6800 3350
F 0 "R3" V 6880 3350 40  0000 C CNN
F 1 "52.3K" V 6807 3351 40  0000 C CNN
F 2 "Resistors_SMD:R_0603" V 6730 3350 30  0001 C CNN
F 3 "~" H 6800 3350 30  0000 C CNN
F 4 "RT9728_ILIM(120mA)" V 6800 3350 60  0001 C CNN "GenericValue"
	1    6800 3350
	1    0    0    -1  
$EndComp
$Comp
L GND #PWR08
U 1 1 59EE60DC
P 6800 3550
F 0 "#PWR08" H 6800 3550 30  0001 C CNN
F 1 "GND" H 6800 3480 30  0001 C CNN
F 2 "" H 6800 3550 60  0001 C CNN
F 3 "" H 6800 3550 60  0000 C CNN
	1    6800 3550
	1    0    0    -1  
$EndComp
$Comp
L C C1
U 1 1 59EE60E3
P 4050 3250
F 0 "C1" H 4050 3350 40  0000 L CNN
F 1 "1uF" H 4056 3165 40  0000 L CNN
F 2 "Capacitors_SMD:C_0603" H 4088 3100 30  0001 C CNN
F 3 "~" H 4050 3250 60  0000 C CNN
	1    4050 3250
	1    0    0    -1  
$EndComp
$Comp
L GND #PWR09
U 1 1 59EE60EA
P 4050 3550
F 0 "#PWR09" H 4050 3550 30  0001 C CNN
F 1 "GND" H 4050 3480 30  0001 C CNN
F 2 "" H 4050 3550 60  0001 C CNN
F 3 "" H 4050 3550 60  0000 C CNN
	1    4050 3550
	1    0    0    -1  
$EndComp
$Comp
L C C10
U 1 1 59EE60F0
P 7000 3200
F 0 "C10" H 7000 3300 40  0000 L CNN
F 1 "1uF" H 7006 3115 40  0000 L CNN
F 2 "Capacitors_SMD:C_0603" H 7038 3050 30  0001 C CNN
F 3 "~" H 7000 3200 60  0000 C CNN
	1    7000 3200
	1    0    0    -1  
$EndComp
$Comp
L GND #PWR010
U 1 1 59EE60F7
P 7000 3550
F 0 "#PWR010" H 7000 3550 30  0001 C CNN
F 1 "GND" H 7000 3480 30  0001 C CNN
F 2 "" H 7000 3550 60  0001 C CNN
F 3 "" H 7000 3550 60  0000 C CNN
	1    7000 3550
	1    0    0    -1  
$EndComp
Text Notes 4800 3650 0    60   ~ 0
USB Protection\nCurrent limit = 500mA (+/- 10%)
NoConn ~ 4350 2150
$Comp
L C C6
U 1 1 59EE7007
P 5250 2050
F 0 "C6" H 5250 2150 40  0000 L CNN
F 1 "1uF" H 5256 1965 40  0000 L CNN
F 2 "Capacitors_SMD:C_0603" H 5288 1900 30  0001 C CNN
F 3 "~" H 5250 2050 60  0000 C CNN
	1    5250 2050
	1    0    0    1   
$EndComp
$Comp
L GND #PWR011
U 1 1 59EE7012
P 5250 2350
F 0 "#PWR011" H 5250 2350 30  0001 C CNN
F 1 "GND" H 5250 2280 30  0001 C CNN
F 2 "" H 5250 2350 60  0001 C CNN
F 3 "" H 5250 2350 60  0000 C CNN
	1    5250 2350
	-1   0    0    -1  
$EndComp
$Comp
L GND #PWR012
U 1 1 59EE7018
P 4050 2350
F 0 "#PWR012" H 4050 2350 30  0001 C CNN
F 1 "GND" H 4050 2280 30  0001 C CNN
F 2 "" H 4050 2350 60  0001 C CNN
F 3 "" H 4050 2350 60  0000 C CNN
	1    4050 2350
	-1   0    0    -1  
$EndComp
$Comp
L C C5
U 1 1 59EE7032
P 4950 2050
F 0 "C5" H 4950 2150 40  0000 L CNN
F 1 "100nF" H 4956 1965 40  0000 L CNN
F 2 "Capacitors_SMD:C_0603" H 4988 1900 30  0001 C CNN
F 3 "~" H 4950 2050 60  0000 C CNN
	1    4950 2050
	-1   0    0    1   
$EndComp
$Comp
L GND #PWR013
U 1 1 59EE7039
P 4950 2350
F 0 "#PWR013" H 4950 2350 30  0001 C CNN
F 1 "GND" H 4950 2280 30  0001 C CNN
F 2 "" H 4950 2350 60  0001 C CNN
F 3 "" H 4950 2350 60  0000 C CNN
	1    4950 2350
	1    0    0    -1  
$EndComp
$Comp
L C C3
U 1 1 59EE703F
P 4650 2050
F 0 "C3" H 4650 2150 40  0000 L CNN
F 1 "10nF" H 4656 1965 40  0000 L CNN
F 2 "Capacitors_SMD:C_0603" H 4688 1900 30  0001 C CNN
F 3 "~" H 4650 2050 60  0000 C CNN
	1    4650 2050
	-1   0    0    -1  
$EndComp
$Comp
L GND #PWR014
U 1 1 59EE7046
P 4650 2350
F 0 "#PWR014" H 4650 2350 30  0001 C CNN
F 1 "GND" H 4650 2280 30  0001 C CNN
F 2 "" H 4650 2350 60  0001 C CNN
F 3 "" H 4650 2350 60  0000 C CNN
	1    4650 2350
	1    0    0    -1  
$EndComp
$Comp
L USB_OTG P1
U 1 1 59EE7068
P 4050 1950
F 0 "P1" H 3850 2400 50  0000 L CNN
F 1 "USB_OTG" H 3850 2300 50  0000 L CNN
F 2 "custom:USB_Micro-B" H 4200 1900 50  0001 C CNN
F 3 "" H 4200 1900 50  0001 C CNN
	1    4050 1950
	1    0    0    -1  
$EndComp
$Comp
L PWR_FLAG #FLG015
U 1 1 59EE7071
P 5250 1750
F 0 "#FLG015" H 5250 1825 50  0001 C CNN
F 1 "PWR_FLAG" H 5250 1900 50  0000 C CNN
F 2 "" H 5250 1750 50  0001 C CNN
F 3 "" H 5250 1750 50  0001 C CNN
	1    5250 1750
	1    0    0    -1  
$EndComp
NoConn ~ 3950 2350
NoConn ~ 4350 1950
NoConn ~ 4350 2050
$Comp
L LED D1
U 1 1 59EE7AC2
P 7000 2100
F 0 "D1" H 7000 2200 50  0000 C CNN
F 1 "FAULT" H 7000 2000 50  0000 C CNN
F 2 "LEDs:LED_0603" H 7000 2100 50  0001 C CNN
F 3 "" H 7000 2100 50  0001 C CNN
	1    7000 2100
	0    -1   -1   0   
$EndComp
$Comp
L LED D2
U 1 1 59EE7C7B
P 6400 2100
F 0 "D2" H 6400 2200 50  0000 C CNN
F 1 "POWER" H 6400 2000 50  0000 C CNN
F 2 "LEDs:LED_0603" H 6400 2100 50  0001 C CNN
F 3 "" H 6400 2100 50  0001 C CNN
	1    6400 2100
	0    -1   -1   0   
$EndComp
$Comp
L GND #PWR016
U 1 1 59EE7D08
P 6400 2250
F 0 "#PWR016" H 6400 2000 50  0001 C CNN
F 1 "GND" H 6400 2100 50  0000 C CNN
F 2 "" H 6400 2250 50  0001 C CNN
F 3 "" H 6400 2250 50  0001 C CNN
	1    6400 2250
	1    0    0    -1  
$EndComp
Text Label 7300 2400 2    60   ~ 0
FAULT
$Comp
L SW_SPDT SW1
U 1 1 59EE84C0
P 4550 3300
F 0 "SW1" H 4550 3470 50  0000 C CNN
F 1 "ON_OFF" H 4550 3100 50  0000 C CNN
F 2 "Buttons_Switches_SMD:SW_SPDT_PCM12" H 4550 3300 50  0001 C CNN
F 3 "" H 4550 3300 50  0001 C CNN
	1    4550 3300
	-1   0    0    -1  
$EndComp
$Comp
L R R1
U 1 1 59EE8729
P 4900 3300
F 0 "R1" V 4980 3300 40  0000 C CNN
F 1 "10K" V 4907 3301 40  0000 C CNN
F 2 "Resistors_SMD:R_0603" V 4830 3300 30  0001 C CNN
F 3 "~" H 4900 3300 30  0000 C CNN
F 4 "PU_PD" V 4900 3300 60  0001 C CNN "GenericValue"
	1    4900 3300
	0    -1   -1   0   
$EndComp
$Comp
L GND #PWR017
U 1 1 59EE8A6A
P 4300 3550
F 0 "#PWR017" H 4300 3550 30  0001 C CNN
F 1 "GND" H 4300 3480 30  0001 C CNN
F 2 "" H 4300 3550 60  0001 C CNN
F 3 "" H 4300 3550 60  0000 C CNN
	1    4300 3550
	1    0    0    -1  
$EndComp
Text Label 4750 3100 0    60   ~ 0
FAULT
$Comp
L +5V #PWR018
U 1 1 59EE9697
P 3800 4200
F 0 "#PWR018" H 3800 4050 50  0001 C CNN
F 1 "+5V" H 3800 4340 50  0000 C CNN
F 2 "" H 3800 4200 50  0001 C CNN
F 3 "" H 3800 4200 50  0001 C CNN
	1    3800 4200
	1    0    0    -1  
$EndComp
$Comp
L +5V #PWR019
U 1 1 59EE99A3
P 7000 2900
F 0 "#PWR019" H 7000 2750 50  0001 C CNN
F 1 "+5V" H 7000 3040 50  0000 C CNN
F 2 "" H 7000 2900 50  0001 C CNN
F 3 "" H 7000 2900 50  0001 C CNN
	1    7000 2900
	1    0    0    -1  
$EndComp
$Comp
L R R2
U 1 1 59EE9D7A
P 7000 1800
F 0 "R2" V 7080 1800 40  0000 C CNN
F 1 "510" V 7007 1801 40  0000 C CNN
F 2 "Resistors_SMD:R_0603" V 6930 1800 30  0001 C CNN
F 3 "~" H 7000 1800 30  0000 C CNN
F 4 "PU_PD" V 7000 1800 60  0001 C CNN "GenericValue"
	1    7000 1800
	1    0    0    -1  
$EndComp
$Comp
L R R4
U 1 1 59EE9E7B
P 6400 1800
F 0 "R4" V 6480 1800 40  0000 C CNN
F 1 "510" V 6407 1801 40  0000 C CNN
F 2 "Resistors_SMD:R_0603" V 6330 1800 30  0001 C CNN
F 3 "~" H 6400 1800 30  0000 C CNN
F 4 "PU_PD" V 6400 1800 60  0001 C CNN "GenericValue"
	1    6400 1800
	1    0    0    -1  
$EndComp
Text Label 5650 1750 2    60   ~ 0
VBUS
Text Label 3750 2900 0    60   ~ 0
VBUS
$Comp
L GND #PWR020
U 1 1 59EEE8B9
P 6400 4550
F 0 "#PWR020" H 6400 4550 30  0001 C CNN
F 1 "GND" H 6400 4480 30  0001 C CNN
F 2 "" H 6400 4550 60  0001 C CNN
F 3 "" H 6400 4550 60  0000 C CNN
	1    6400 4550
	0    1    1    0   
$EndComp
$Comp
L GND #PWR021
U 1 1 59EEE9B0
P 6400 4450
F 0 "#PWR021" H 6400 4450 30  0001 C CNN
F 1 "GND" H 6400 4380 30  0001 C CNN
F 2 "" H 6400 4450 60  0001 C CNN
F 3 "" H 6400 4450 60  0000 C CNN
	1    6400 4450
	0    1    1    0   
$EndComp
$Comp
L +5V #PWR022
U 1 1 59EEE9E3
P 6400 4350
F 0 "#PWR022" H 6400 4200 50  0001 C CNN
F 1 "+5V" H 6400 4490 50  0000 C CNN
F 2 "" H 6400 4350 50  0001 C CNN
F 3 "" H 6400 4350 50  0001 C CNN
	1    6400 4350
	0    -1   -1   0   
$EndComp
$Comp
L Conn_01x04 J1
U 1 1 59EE6AF4
P 6600 4450
F 0 "J1" H 6600 4650 50  0000 C CNN
F 1 "OUTPUT" H 6600 4150 50  0000 C CNN
F 2 "custom:Pin_Header_Angled_1x04_Pitch2.54mm_AllPadCircular" H 6600 4450 50  0001 C CNN
F 3 "" H 6600 4450 50  0001 C CNN
	1    6600 4450
	1    0    0    -1  
$EndComp
Wire Notes Line
	3600 2600 3600 3800
Wire Notes Line
	7400 2600 3600 2600
Wire Notes Line
	7400 3800 7400 2600
Wire Notes Line
	3600 3800 7400 3800
Wire Wire Line
	7000 3350 7000 3550
Wire Wire Line
	6800 3550 6800 3500
Wire Wire Line
	6800 3100 6800 3200
Wire Wire Line
	7000 2900 7000 3050
Wire Wire Line
	6550 3300 6650 3300
Wire Wire Line
	6650 3300 6650 3550
Wire Wire Line
	6550 3100 6800 3100
Wire Wire Line
	3750 2900 5050 2900
Connection ~ 7000 2900
Connection ~ 4050 2900
Wire Notes Line
	3600 4850 6000 4850
Wire Notes Line
	3600 4850 3600 3900
Wire Wire Line
	5200 4350 5200 4300
Wire Notes Line
	6000 4850 6000 3900
Connection ~ 5800 4200
Wire Wire Line
	5800 4200 5800 4350
Connection ~ 3800 4200
Wire Wire Line
	3800 4200 3800 4350
Connection ~ 4200 4200
Wire Wire Line
	4050 4200 4050 4350
Connection ~ 4050 4200
Wire Wire Line
	4200 4200 4200 4300
Connection ~ 5550 4200
Wire Wire Line
	5550 4200 5550 4350
Wire Wire Line
	4350 1750 5650 1750
Connection ~ 5250 1750
Connection ~ 4950 1750
Wire Wire Line
	4650 1750 4650 1900
Wire Wire Line
	4950 1750 4950 1900
Wire Wire Line
	5250 1750 5250 1900
Connection ~ 4650 1750
Wire Notes Line
	3600 1400 6050 1400
Wire Notes Line
	6050 1400 6050 2500
Wire Notes Line
	6050 2500 3600 2500
Wire Notes Line
	3600 2500 3600 1400
Wire Notes Line
	6150 2500 7400 2500
Wire Notes Line
	7400 2500 7400 1400
Wire Notes Line
	7400 1400 6150 1400
Wire Notes Line
	6150 1400 6150 2500
Wire Wire Line
	4750 3300 4750 3300
Wire Wire Line
	4300 3400 4350 3400
Wire Wire Line
	5050 3100 4750 3100
Wire Wire Line
	6400 1650 6400 1650
Wire Wire Line
	5200 4200 5800 4200
Wire Wire Line
	3800 4200 4200 4200
Wire Wire Line
	7000 2900 6550 2900
Wire Wire Line
	4350 3200 4300 3200
Wire Wire Line
	4300 3200 4300 2900
Connection ~ 4300 2900
Wire Wire Line
	4300 3400 4300 3550
$Comp
L +5V #PWR023
U 1 1 59EE7358
P 6900 4350
F 0 "#PWR023" H 6900 4200 50  0001 C CNN
F 1 "+5V" H 6900 4490 50  0000 C CNN
F 2 "" H 6900 4350 50  0001 C CNN
F 3 "" H 6900 4350 50  0001 C CNN
	1    6900 4350
	1    0    0    -1  
$EndComp
$Comp
L C C11
U 1 1 59EE7485
P 6900 4500
F 0 "C11" H 6900 4600 40  0000 L CNN
F 1 "100nF" H 6906 4415 40  0000 L CNN
F 2 "Capacitors_SMD:C_0603" H 6938 4350 30  0001 C CNN
F 3 "~" H 6900 4500 60  0000 C CNN
	1    6900 4500
	1    0    0    -1  
$EndComp
$Comp
L C C12
U 1 1 59EE7559
P 7150 4500
F 0 "C12" H 7150 4600 40  0000 L CNN
F 1 "100nF" H 7156 4415 40  0000 L CNN
F 2 "Capacitors_SMD:C_0603" H 7188 4350 30  0001 C CNN
F 3 "~" H 7150 4500 60  0000 C CNN
	1    7150 4500
	1    0    0    -1  
$EndComp
$Comp
L GND #PWR024
U 1 1 59EE7663
P 6900 4650
F 0 "#PWR024" H 6900 4650 30  0001 C CNN
F 1 "GND" H 6900 4580 30  0001 C CNN
F 2 "" H 6900 4650 60  0001 C CNN
F 3 "" H 6900 4650 60  0000 C CNN
	1    6900 4650
	1    0    0    -1  
$EndComp
$Comp
L GND #PWR025
U 1 1 59EE76B3
P 7150 4650
F 0 "#PWR025" H 7150 4650 30  0001 C CNN
F 1 "GND" H 7150 4580 30  0001 C CNN
F 2 "" H 7150 4650 60  0001 C CNN
F 3 "" H 7150 4650 60  0000 C CNN
	1    7150 4650
	1    0    0    -1  
$EndComp
$Comp
L +5V #PWR026
U 1 1 59EE7896
P 6400 1650
F 0 "#PWR026" H 6400 1500 50  0001 C CNN
F 1 "+5V" H 6400 1790 50  0000 C CNN
F 2 "" H 6400 1650 50  0001 C CNN
F 3 "" H 6400 1650 50  0001 C CNN
	1    6400 1650
	1    0    0    -1  
$EndComp
Text Label 7300 1550 2    60   ~ 0
VBUS
Wire Wire Line
	7300 1550 7000 1550
Wire Wire Line
	7000 1550 7000 1650
Wire Wire Line
	7000 2250 7000 2400
Wire Wire Line
	7000 2400 7300 2400
$Comp
L +3.3V #PWR027
U 1 1 59EE9001
P 6400 4650
F 0 "#PWR027" H 6400 4500 50  0001 C CNN
F 1 "+3.3V" H 6400 4790 50  0000 C CNN
F 2 "" H 6400 4650 50  0001 C CNN
F 3 "" H 6400 4650 50  0001 C CNN
	1    6400 4650
	0    -1   -1   0   
$EndComp
$Comp
L +3.3V #PWR028
U 1 1 59EE9120
P 7150 4350
F 0 "#PWR028" H 7150 4200 50  0001 C CNN
F 1 "+3.3V" H 7150 4490 50  0000 C CNN
F 2 "" H 7150 4350 50  0001 C CNN
F 3 "" H 7150 4350 50  0001 C CNN
	1    7150 4350
	1    0    0    -1  
$EndComp
$Comp
L +3.3V #PWR029
U 1 1 59EE9170
P 5800 4200
F 0 "#PWR029" H 5800 4050 50  0001 C CNN
F 1 "+3.3V" H 5800 4340 50  0000 C CNN
F 2 "" H 5800 4200 50  0001 C CNN
F 3 "" H 5800 4200 50  0001 C CNN
	1    5800 4200
	1    0    0    -1  
$EndComp
$Comp
L PWR_FLAG #FLG030
U 1 1 59EE98A2
P 5650 2350
F 0 "#FLG030" H 5650 2425 50  0001 C CNN
F 1 "PWR_FLAG" H 5650 2500 50  0000 C CNN
F 2 "" H 5650 2350 50  0001 C CNN
F 3 "" H 5650 2350 50  0001 C CNN
	1    5650 2350
	1    0    0    -1  
$EndComp
$Comp
L GND #PWR031
U 1 1 59EE98F2
P 5650 2350
F 0 "#PWR031" H 5650 2350 30  0001 C CNN
F 1 "GND" H 5650 2280 30  0001 C CNN
F 2 "" H 5650 2350 60  0001 C CNN
F 3 "" H 5650 2350 60  0000 C CNN
	1    5650 2350
	-1   0    0    -1  
$EndComp
Text Notes 4450 6050 0    157  ~ 31
Easy USB Supply
Text Notes 4450 6200 0    55   ~ 11
https://www.madresistor.com/easy-usb-supply
Wire Notes Line
	6100 3900 6100 4850
Wire Notes Line
	7400 3900 7400 4850
Wire Notes Line
	7400 4850 6100 4850
Wire Notes Line
	7400 3900 6100 3900
Wire Notes Line
	6000 3900 3600 3900
Wire Wire Line
	4050 3400 4050 3550
Wire Wire Line
	4050 3100 4050 2900
Wire Wire Line
	4650 2350 4650 2200
Wire Wire Line
	4950 2200 4950 2350
Wire Wire Line
	5250 2200 5250 2350
$EndSCHEMATC
